{
	"ImportPath": "gitlab.com/azalio/flibusta",
	"GoVersion": "go1.11",
	"GodepVersion": "v80",
	"Deps": [
		{
			"ImportPath": "github.com/BurntSushi/toml",
			"Comment": "v0.3.1",
			"Rev": "3012a1dbe2e4bd1391d42b32f0577cb7bbc7f005"
		},
		{
			"ImportPath": "github.com/go-sql-driver/mysql",
			"Comment": "v1.4.0-9-gdea3c7b",
			"Rev": "dea3c7b6f9f291f62983aaea85250de9773b4f9f"
		},
		{
			"ImportPath": "github.com/go-telegram-bot-api/telegram-bot-api",
			"Comment": "v4.6.4",
			"Rev": "9860bdfd3a171ceafb6e1eafa163482a6ef92643"
		},
		{
			"ImportPath": "github.com/jinzhu/configor",
			"Rev": "4edaf76fe18865e36de734d887f4c01bd05707af"
		},
		{
			"ImportPath": "github.com/lithammer/fuzzysearch/fuzzy",
			"Comment": "v1.0.1",
			"Rev": "b18e754edff4833912ef4dce9eaca885bd3f0de1"
		},
		{
			"ImportPath": "github.com/technoweenie/multipartstreamer",
			"Comment": "v1.0.1",
			"Rev": "a90a01d73ae432e2611d178c18367fbaa13e0154"
		},
		{
			"ImportPath": "gopkg.in/yaml.v2",
			"Comment": "v2.2.1",
			"Rev": "5420a8b6744d3b0345ab293f6fcba19c978f1183"
		}
	]
}
